<svg xmlns="http://www.w3.org/2000/svg" xmlns:xlink="http://www.w3.org/1999/xlink" width="961.646" height="613.82" viewBox="0 0 961.646 613.82">
  <defs>
    <linearGradient id="linear-gradient" x1="0.454" y1="1" x2="0.454" gradientUnits="objectBoundingBox">
      <stop offset="0" stop-color="gray" stop-opacity="0.251"/>
      <stop offset="0.54" stop-color="gray" stop-opacity="0.122"/>
      <stop offset="1" stop-color="gray" stop-opacity="0.102"/>
    </linearGradient>
    <linearGradient id="linear-gradient-2" x1="3.193" y1="1" x2="3.193" y2="0" xlink:href="#linear-gradient"/>
  </defs>
  <g id="Group_53" data-name="Group 53" transform="translate(146.42 -3430)">
    <g id="Group_48" data-name="Group 48">
      <g id="Group_47" data-name="Group 47" transform="translate(-1418 713)">
        <ellipse id="Ellipse_47" data-name="Ellipse 47" cx="127.585" cy="127.585" rx="127.585" ry="127.585" transform="translate(1271.58 3068.417)" fill="#2a80e9" opacity="0.07"/>
        <ellipse id="Ellipse_48" data-name="Ellipse 48" cx="303.293" cy="303.293" rx="303.293" ry="303.293" transform="translate(1351.414 2717)" fill="#2a80e9" opacity="0.07"/>
      </g>
      <g id="Group_46" data-name="Group 46" transform="translate(1190 269.901)">
        <g id="undraw_drone_delivery_5vrm" transform="translate(-1127 3237.52)">
          <path id="Path_300" data-name="Path 300" d="M714.361,224V173.757H684.53V224H649.2V146.282H623.3V88.191H602.1V28.53H558.143V88.191h-21.2v58.091h-25.12V76.416H497.7V41.09h-8.635V76.416H438.822V299.359H400.356v-23.55h-23.55v23.55H338.34V224H269.259V173.757h-29.83V224h-1.57v96.556h-31.4V264.034H168.778v56.521h-31.4V146.282H113.042V88.191H23.55v58.091H0v306.94H749.686V224Z" transform="translate(0 -28.53)" fill="#297ee6" opacity="0.25"/>
          <rect id="Rectangle_138" data-name="Rectangle 138" width="32.97" height="18.84" transform="translate(14.915 135.807)" fill="#fff" opacity="0.4"/>
          <rect id="Rectangle_139" data-name="Rectangle 139" width="32.97" height="18.84" transform="translate(121.677 154.647) rotate(180)" fill="#fff" opacity="0.4"/>
          <rect id="Rectangle_140" data-name="Rectangle 140" width="32.97" height="18.84" transform="translate(14.915 172.703)" fill="#fff" opacity="0.4"/>
          <rect id="Rectangle_141" data-name="Rectangle 141" width="32.97" height="18.84" transform="translate(121.677 191.543) rotate(180)" fill="#fff" opacity="0.4"/>
          <rect id="Rectangle_142" data-name="Rectangle 142" width="32.97" height="18.84" transform="translate(14.915 209.598)" fill="#fff" opacity="0.4"/>
          <rect id="Rectangle_143" data-name="Rectangle 143" width="32.97" height="18.84" transform="translate(121.677 228.438) rotate(180)" fill="#fff" opacity="0.4"/>
          <rect id="Rectangle_144" data-name="Rectangle 144" width="32.97" height="18.84" transform="translate(14.915 246.494)" fill="#fff" opacity="0.4"/>
          <rect id="Rectangle_145" data-name="Rectangle 145" width="32.97" height="18.84" transform="translate(121.677 265.334) rotate(180)" fill="#fff" opacity="0.4"/>
          <rect id="Rectangle_146" data-name="Rectangle 146" width="32.97" height="18.84" transform="translate(14.915 283.389)" fill="#fff" opacity="0.4"/>
          <rect id="Rectangle_147" data-name="Rectangle 147" width="32.97" height="18.84" transform="translate(121.677 302.23) rotate(180)" fill="#fff" opacity="0.4"/>
          <rect id="Rectangle_148" data-name="Rectangle 148" width="32.97" height="18.84" transform="translate(14.915 320.285)" fill="#fff" opacity="0.4"/>
          <rect id="Rectangle_149" data-name="Rectangle 149" width="32.97" height="18.84" transform="translate(121.677 339.125) rotate(180)" fill="#fff" opacity="0.4"/>
          <rect id="Rectangle_150" data-name="Rectangle 150" width="32.97" height="18.84" transform="translate(14.915 357.18)" fill="#fff" opacity="0.4"/>
          <rect id="Rectangle_151" data-name="Rectangle 151" width="32.97" height="18.84" transform="translate(121.677 376.021) rotate(180)" fill="#fff" opacity="0.4"/>
          <rect id="Rectangle_152" data-name="Rectangle 152" width="76.931" height="9.42" transform="translate(149.152 310.865)" fill="#fff" opacity="0.4"/>
          <rect id="Rectangle_153" data-name="Rectangle 153" width="76.931" height="9.42" transform="translate(149.152 324.995)" fill="#fff" opacity="0.4"/>
          <rect id="Rectangle_154" data-name="Rectangle 154" width="76.931" height="9.42" transform="translate(149.152 339.125)" fill="#fff" opacity="0.4"/>
          <rect id="Rectangle_155" data-name="Rectangle 155" width="76.931" height="9.42" transform="translate(350.115 315.575)" fill="#fff" opacity="0.4"/>
          <rect id="Rectangle_156" data-name="Rectangle 156" width="76.931" height="9.42" transform="translate(350.115 329.705)" fill="#fff" opacity="0.4"/>
          <rect id="Rectangle_157" data-name="Rectangle 157" width="76.931" height="9.42" transform="translate(350.115 343.835)" fill="#fff" opacity="0.4"/>
          <rect id="Rectangle_158" data-name="Rectangle 158" width="76.931" height="9.42" transform="translate(149.152 353.255)" fill="#fff" opacity="0.4"/>
          <rect id="Rectangle_159" data-name="Rectangle 159" width="76.931" height="9.42" transform="translate(149.152 367.386)" fill="#fff" opacity="0.4"/>
          <rect id="Rectangle_160" data-name="Rectangle 160" width="76.931" height="9.42" transform="translate(149.152 381.516)" fill="#fff" opacity="0.4"/>
          <rect id="Rectangle_161" data-name="Rectangle 161" width="21.195" height="27.475" transform="translate(254.344 213.523)" fill="#fff" opacity="0.4"/>
          <rect id="Rectangle_162" data-name="Rectangle 162" width="21.195" height="27.475" transform="translate(321.855 240.999) rotate(180)" fill="#fff" opacity="0.4"/>
          <rect id="Rectangle_163" data-name="Rectangle 163" width="21.195" height="27.475" transform="translate(254.344 257.484)" fill="#fff" opacity="0.4"/>
          <rect id="Rectangle_164" data-name="Rectangle 164" width="21.195" height="27.475" transform="translate(321.855 284.959) rotate(180)" fill="#fff" opacity="0.4"/>
          <rect id="Rectangle_165" data-name="Rectangle 165" width="21.195" height="27.475" transform="translate(254.344 301.445)" fill="#fff" opacity="0.4"/>
          <rect id="Rectangle_166" data-name="Rectangle 166" width="21.195" height="27.475" transform="translate(321.855 328.92) rotate(180)" fill="#fff" opacity="0.4"/>
          <rect id="Rectangle_167" data-name="Rectangle 167" width="21.195" height="27.475" transform="translate(254.344 345.405)" fill="#fff" opacity="0.4"/>
          <rect id="Rectangle_168" data-name="Rectangle 168" width="21.195" height="27.475" transform="translate(321.855 372.881) rotate(180)" fill="#fff" opacity="0.4"/>
          <rect id="Rectangle_169" data-name="Rectangle 169" width="28.26" height="36.111" transform="translate(438.822 65.941)" fill="#fff" opacity="0.4"/>
          <rect id="Rectangle_170" data-name="Rectangle 170" width="28.26" height="36.111" transform="translate(438.822 117.752)" fill="#fff" opacity="0.4"/>
          <rect id="Rectangle_171" data-name="Rectangle 171" width="28.26" height="36.111" transform="translate(438.822 169.563)" fill="#fff" opacity="0.4"/>
          <rect id="Rectangle_172" data-name="Rectangle 172" width="28.26" height="36.111" transform="translate(438.822 221.373)" fill="#fff" opacity="0.4"/>
          <rect id="Rectangle_173" data-name="Rectangle 173" width="28.26" height="36.111" transform="translate(438.822 273.184)" fill="#fff" opacity="0.4"/>
          <rect id="Rectangle_174" data-name="Rectangle 174" width="28.26" height="36.111" transform="translate(438.822 324.995)" fill="#fff" opacity="0.4"/>
          <rect id="Rectangle_175" data-name="Rectangle 175" width="105.192" height="30.615" transform="translate(527.92 139.732)" fill="#fff" opacity="0.4"/>
          <rect id="Rectangle_176" data-name="Rectangle 176" width="105.192" height="30.615" transform="translate(528.313 205.673)" fill="#fff" opacity="0.4"/>
          <rect id="Rectangle_177" data-name="Rectangle 177" width="105.192" height="30.615" transform="translate(528.706 271.614)" fill="#fff" opacity="0.4"/>
          <rect id="Rectangle_178" data-name="Rectangle 178" width="105.192" height="30.615" transform="translate(529.098 337.555)" fill="#fff" opacity="0.4"/>
          <rect id="Rectangle_179" data-name="Rectangle 179" width="14.13" height="29.83" transform="translate(23.55 76.146)" fill="#fff" opacity="0.4"/>
          <rect id="Rectangle_180" data-name="Rectangle 180" width="35.326" height="45.531" transform="translate(714.361 213.523)" fill="#fff" opacity="0.4"/>
          <rect id="Rectangle_181" data-name="Rectangle 181" width="35.326" height="45.531" transform="translate(714.361 279.464)" fill="#fff" opacity="0.4"/>
          <rect id="Rectangle_182" data-name="Rectangle 182" width="35.326" height="45.531" transform="translate(714.361 345.405)" fill="#fff" opacity="0.4"/>
          <path id="Path_301" data-name="Path 301" d="M370.149,165.249h-5.4a3.784,3.784,0,1,0,0-7.56H321a3.784,3.784,0,0,0,0,7.56h5.4a3.784,3.784,0,1,0,0,7.56h-7.56a3.784,3.784,0,0,0,0,7.56H362.59a3.784,3.784,0,0,0,0-7.56h7.56a3.784,3.784,0,1,0,0-7.56Z" transform="translate(-162.372 -127.819)" fill="#252223" opacity="0.1"/>
          <path id="Path_302" data-name="Path 302" d="M616.055,286.249h-5.4a3.784,3.784,0,1,0,0-7.56H566.905a3.784,3.784,0,0,0,0,7.56h5.4a3.784,3.784,0,1,0,0,7.56h-7.56a3.784,3.784,0,1,0,0,7.56H608.5a3.784,3.784,0,1,0,0-7.56h7.56a3.784,3.784,0,1,0,0-7.56Z" transform="translate(-215.165 -153.833)" fill="#252223" opacity="0.1"/>
          <path id="Path_303" data-name="Path 303" d="M1035.055,128.249h-5.4a3.784,3.784,0,1,0,0-7.56H985.905a3.784,3.784,0,0,0,0,7.56h5.4a3.784,3.784,0,1,0,0,7.56h-7.56a3.784,3.784,0,1,0,0,7.56H1027.5a3.784,3.784,0,1,0,0-7.56h7.56a3.784,3.784,0,1,0,0-7.56Z" transform="translate(-305.245 -119.865)" fill="#252223" opacity="0.1"/>
          <path id="Path_314" data-name="Path 314" d="M324.456,444.59l-.086.267A1.57,1.57,0,0,0,324.456,444.59Z" transform="translate(-164.337 -189.5)" fill="url(#linear-gradient)"/>
          <path id="Path_338" data-name="Path 338" d="M236.7,652.212c-6.029-3.713,6.955-57.047,9.279-59.826,1.013-1.217,4.168-.659,7.395.361-3.658-1.28-7.622-2.222-8.784-.785-2.355,2.779-15.308,56.113-9.279,59.826a10.937,10.937,0,0,0,3.36,1.531A17,17,0,0,1,236.7,652.212Z" transform="translate(-144.849 -221.028)" fill="#fff" opacity="0.5"/>
          <path id="Path_339" data-name="Path 339" d="M624.869,710.34c.628,1.57.44,3.446-2.159,5.04-6.029,3.713-54.723,15.308-54.723,15.308a23.254,23.254,0,0,1-1.327-2.253,24.775,24.775,0,0,0,1.79,3.179s48.671-11.595,54.723-15.308C626.289,714.391,625.936,712.1,624.869,710.34Z" transform="translate(-216.427 -246.633)" fill="#fff" opacity="0.5"/>
          <path id="Path_346" data-name="Path 346" d="M749.177,700.382c-5.589,2.881-11.445,5.37-17.223,7.85-21.344,9.012-43.011,18.1-65.941,21.2-43.034,5.8-87.482-9.907-129.786-.133-35.443,8.18-64.756,33.245-99.383,44.408-16.1,5.189-32.853,7.222-49.754,7.222h-2.222q-3.14-.039-6.233-.157c-17.137-.644-34.344-3.179-51.144-6.421C274.449,764.141,220.464,745.434,179.91,711,298,689.384,541.235,656.272,749.177,700.382Z" transform="translate(-133.28 -244.526)" fill="#252223" opacity="0.1"/>
          <path id="Path_347" data-name="Path 347" d="M741.091,534.72a36.409,36.409,0,0,1,6.641,37.869c-8.6,22.624,14.758,60.25,14.758,60.25l-.714-.118c-31.314-5.5-46.873-41.339-29.462-67.943C738.783,554.879,744.1,543.277,741.091,534.72Z" transform="translate(-250.482 -208.877)" fill="#297ee6"/>
          <path id="Path_348" data-name="Path 348" d="M744.51,534.72s8.635,18.691,0,33.936-1.476,58.036,21.392,64.183" transform="translate(-253.901 -208.877)" fill="none" stroke="#535461" stroke-miterlimit="10" stroke-width="1"/>
          <path id="Path_349" data-name="Path 349" d="M710.89,613.218s17.4-2.771,18.982,12.819,33.457,17.749,33.457,17.749l-.6.4c-26.314,17.27-51.465,10.99-47.674-11.932C716.471,623.729,716.346,615.165,710.89,613.218Z" transform="translate(-247.435 -225.712)" fill="#297ee6"/>
          <path id="Path_350" data-name="Path 350" d="M710.89,613.218s17.4-2.771,18.982,12.819,33.457,17.749,33.457,17.749l-.6.4c-26.314,17.27-51.465,10.99-47.674-11.932C716.471,623.729,716.346,615.165,710.89,613.218Z" transform="translate(-247.435 -225.712)" fill="#f5f5f5" opacity="0.2"/>
          <path id="Path_351" data-name="Path 351" d="M710.89,613.27s13.5,2.967,12.4,15.245,20.057,27,40.036,15.331" transform="translate(-247.435 -225.765)" fill="none" stroke="#535461" stroke-miterlimit="10" stroke-width="1"/>
          <path id="Path_352" data-name="Path 352" d="M783.837,653.058s-10.943-2.19-13.856-5.1-16.046-8.023-17.506-4.372-19.7,16.046-7.293,18.236,29.179,2.92,32.821,1.46S783.837,653.058,783.837,653.058Z" transform="translate(-253.883 -232.009)" fill="#a8a8a8"/>
          <path id="Path_353" data-name="Path 353" d="M745.181,663.373c12.4,2.19,29.179,2.92,32.821,1.46,2.779-1.115,4.71-6.445,5.5-8.933l.361.078s-2.19,8.753-5.833,10.205-20.41.73-32.821-1.46c-3.58-.628-4.6-2.112-4.216-4C741.272,661.96,742.551,662.9,745.181,663.373Z" transform="translate(-253.889 -234.929)" opacity="0.2"/>
          <path id="Path_354" data-name="Path 354" d="M1046.21,649.209s10.37-35.223-1.947-61.145a55.635,55.635,0,0,1-4.5-34.9,93.552,93.552,0,0,1,4.938-16.383" transform="translate(-317.916 -209.32)" fill="none" stroke="#535461" stroke-miterlimit="10" stroke-width="2"/>
          <path id="Path_355" data-name="Path 355" d="M1036.58,513.934c0,4.318,7.85,16.831,7.85,16.831s7.85-12.521,7.85-16.831a7.85,7.85,0,0,0-15.63,0Z" transform="translate(-317.454 -202.881)" fill="#297ee6"/>
          <path id="Path_356" data-name="Path 356" d="M1019.87,543.193c2.355,3.627,15.7,9.883,15.7,9.883s-.243-14.758-2.591-18.377a7.85,7.85,0,0,0-13.125,8.494Z" transform="translate(-313.666 -208.228)" fill="#297ee6"/>
          <path id="Path_357" data-name="Path 357" d="M1019.486,594.247c3.854,1.947,18.55.6,18.55.6s-7.662-12.615-11.516-14.562a7.85,7.85,0,1,0-7.065,13.958Z" transform="translate(-312.717 -218.422)" fill="#297ee6"/>
          <path id="Path_358" data-name="Path 358" d="M1029.542,633.9c3.47,2.567,18.181,3.729,18.181,3.729s-5.417-13.73-8.886-16.3a7.85,7.85,0,0,0-9.294,12.56Z" transform="translate(-315.385 -227.259)" fill="#297ee6"/>
          <path id="Path_359" data-name="Path 359" d="M1056.2,556.454c-3.093,3.007-17.521,6.123-17.521,6.123s3.533-14.326,6.625-17.333a7.85,7.85,0,0,1,10.9,11.21Z" transform="translate(-317.906 -210.766)" fill="#297ee6"/>
          <path id="Path_360" data-name="Path 360" d="M1066.38,601.907c-3.854,1.947-18.55.6-18.55.6s7.662-12.615,11.516-14.562a7.85,7.85,0,1,1,7.065,13.958Z" transform="translate(-319.873 -220.069)" fill="#297ee6"/>
          <path id="Path_361" data-name="Path 361" d="M1070.471,648.453c-3.47,2.567-18.181,3.729-18.181,3.729s5.417-13.73,8.886-16.3a7.85,7.85,0,0,1,9.294,12.56Z" transform="translate(-320.832 -230.387)" fill="#297ee6"/>
          <path id="Path_362" data-name="Path 362" d="M1056.616,670.51s-18.958-3.792-24.013-8.847-27.805-13.9-30.333-7.583-34.124,27.805-12.639,31.6,50.555,5.055,56.866,2.528S1056.616,670.51,1056.616,670.51Z" transform="translate(-305.76 -234.067)" fill="#a8a8a8"/>
          <path id="Path_363" data-name="Path 363" d="M989.642,688.393c21.486,3.792,50.555,5.055,56.866,2.528,4.812-1.923,8.156-11.171,9.475-15.48l.636.133s-3.792,15.166-10.111,17.694-35.388,1.264-56.866-2.528c-6.2-1.091-7.976-3.666-7.308-6.916C982.868,685.943,985.026,687.576,989.642,688.393Z" transform="translate(-305.764 -239.13)" opacity="0.2"/>
        </g>
        <g id="undraw_onboarding_o8mv" transform="translate(-1024.863 3383.14)">
          <path id="Path_389" data-name="Path 389" d="M186.513,356.843c-2.291,10.423-6.422,23.267-6.422,23.267,4.084,4.765,21.9,5.617,21.9,5.617l.03-.035h.278c.124.657.266,1.29.438,1.894q-.047.894-.089,1.811a4.942,4.942,0,0,0-.255,2.225,5.041,5.041,0,0,0,.13.5c-.426,9.435-.728,19.5-.468,25.309a24.355,24.355,0,0,0,.5,4.9,17.644,17.644,0,0,1,.521,3.758c.29,8.505-1.776,22.793-1.776,22.793s.053.2.083.3c-.036.243-.059.385-.059.385a6.74,6.74,0,0,1,.3,1.776c.154,7.174-3.96,22.781-3.96,22.781s-3.326,24-2.853,33.145a21.078,21.078,0,0,0,.16,2.184c1.018,7.606,2.368,28.842,2.368,28.842a9.528,9.528,0,0,0,.775,1c-.118.473-.26.953-.414,1.426a40.011,40.011,0,0,0-1.983,14.868c.041.592.089,1.237.148,1.888.681,7.836,19.638,2.959,20.887,2.048.426-.314.124-3.155-.462-6.759l19.532,4.824s13.85,2.048,20.438,0,6.357-7.694-3.066-8.624c-6.6-.639-11.838-6.783-14.424-10.411,1-2.729,8.5-23.438,9.878-36.258a181.505,181.505,0,0,1,4.374-24.575L254.5,458.64l2.616-11.246,3.119-14.868c3.522-10.9,4.6-29.126,4.6-29.126l2.723-17.881a34.62,34.62,0,0,0,.633-5.9,66.091,66.091,0,0,1,7.546,2.018c4.262-3.314-1.776-35.252-1.776-35.252s-2.906-20.171-5.368-38.561a37.685,37.685,0,0,1,11.755.479l35.767.787a18.171,18.171,0,0,0,1.918-3.125h1.533a3.284,3.284,0,0,0,.444-.864l.633.118a52.9,52.9,0,0,1,6.842,2.077s11.281,1.361,9.577-10.47c-1.267-8.819-11.3-5.617-16.324-3.427l-.633.29c-.047-.331-.077-.521-.077-.521l-1.616.3a7.822,7.822,0,0,0-.337-.722s-17.543-.681-31.766-2.811c-10.115-1.515-17.756-7.3-21.349-10.506-2.492-12.648-9.73-16.49-9.73-16.49a21.661,21.661,0,0,1-9.867-3.338,20.859,20.859,0,0,1-2.308-1.6l-.391.225-.047-.041c2.409-2.237,4.907-4.291,7.1-6.013l.988-.764a21.941,21.941,0,0,0,17.922-30.724c-.095-.213-.207-.426-.308-.633a4.924,4.924,0,0,0,4.344-4.279c.219-2.48-1.491-5.12-.373-7.345a7.136,7.136,0,0,0,.533-1.036,2.8,2.8,0,0,0,.083-1.042,7.333,7.333,0,0,0-2.959-5.327c-2.539-1.841-4.794-.906-7.57-1.065a91.392,91.392,0,0,1-9.547-1.48,33.013,33.013,0,0,0-10.967-.361,14.133,14.133,0,0,0-9.269,5.428c-.9,1.29-1.509,2.764-2.368,4.1-.965,1.539-2.214,2.871-3.32,4.3-1.864,2.409-3.374,5.3-3.226,8.34.083,1.722.693,3.38.811,5.1a31.07,31.07,0,0,1-.355,4.794,20.988,20.988,0,0,0,.349,6.114,3.788,3.788,0,0,0,.7,1.74,3.711,3.711,0,0,0,1.539.988,13.752,13.752,0,0,0,1.888.592,27.043,27.043,0,0,1-2.646,4.765l-.959-.994-2.592,4.048-.1-.272c-.124.255-.266.5-.414.74l-.266-.74a15.563,15.563,0,0,1-5.806,5.812c-6.783,4.262-16.247,6.025-16.247,6.025-15.247,2.214-12.429,17.963-12.429,17.963s-6.469,28.1-8.286,45.474,4.936,28.44,4.936,28.44Zm72.712-51.363c.592,1.935,1.113,3.77,1.557,5.374l-.284.112c-.326-1.486-.769-3.391-1.255-5.487Zm-16.774-47.155-.083.053.077-.077Zm-26.3,293.648c-.746-4.457-1.858-9.837-2.545-13.051.485-1.58,1.13-4,1.888-7.588,1.7-8.055,2.723-36.56,2.723-36.56l3.977-23.947c3.634-9.2,4.427-20.124,4.427-20.124,1.462-3.859,4.842-27.481,5.38-31.275-.154,2.622-.521,9.263-.716,16.638v.2c-.148,5.57-.189,11.542,0,16.5h0c.053,1.391.124,2.711.219,3.93.03.314.047.639.059.959.426,12.844-5.327,29-5.327,29s-2.563,11.98-2.184,18.674a12.323,12.323,0,0,0,.509,3.551,6.28,6.28,0,0,1,.29,1.645c.107,6.4-3.676,19.846-4.64,23.142C218.107,538.01,216.539,549.084,216.154,551.973Z" transform="translate(-178.555 -197.798)" fill="url(#linear-gradient-2)"/>
          <path id="Path_390" data-name="Path 390" d="M263.376,764s6.641,12.039,15.981,12.938,9.565,6.511,3.036,8.553-20.254,0-20.254,0l-19.579-4.836s2.368-19.354,5.51-20.367S263.376,764,263.376,764Z" transform="translate(-204.677 -427.306)" fill="#4c4c78"/>
          <path id="Path_391" data-name="Path 391" d="M225.556,766.042s4.954,22.278,3.717,23.184-20.029,5.735-20.716-2.03c-.059-.645-.107-1.273-.142-1.87a39.443,39.443,0,0,1,1.965-14.738,12.21,12.21,0,0,0,.764-4.546C210.819,762.917,225.556,766.042,225.556,766.042Z" transform="translate(-190.716 -429.144)" fill="#4c4c78"/>
          <path id="Path_392" data-name="Path 392" d="M247.79,271.827s15.188,37.288,12.489,25.332c-1.776-7.943,9.772-18.484,17.756-24.681,4.066-3.161,7.215-5.191,7.215-5.191s-28.529-33.252-26.5-18.9a21.6,21.6,0,0,1-1.557,11.577,30.351,30.351,0,0,1-9.4,11.867Z" transform="translate(-206.812 -216.976)" fill="#ffb9b9"/>
          <path id="Path_393" data-name="Path 393" d="M411.77,370.42a8.73,8.73,0,0,1,3.474.219,51.269,51.269,0,0,1,6.777,2.06s11.186,1.349,9.47-10.376c-1.255-8.748-11.2-5.575-16.176-3.4-1.693.74-2.817,1.367-2.817,1.367Z" transform="translate(-273.736 -262.579)" fill="#ffb9b9"/>
          <path id="Path_394" data-name="Path 394" d="M411.77,372.074a8.73,8.73,0,0,1,3.474.219c1.213-3.072.29-10.346.095-11.713-1.693.74-2.817,1.367-2.817,1.367Z" transform="translate(-273.736 -264.233)" opacity="0.1"/>
          <path id="Path_395" data-name="Path 395" d="M411.05,360.759l2.924-.539s1.5,10.062-.456,12.69H410.15Z" transform="translate(-273.074 -264.086)" fill="#cbcdda"/>
          <path id="Path_396" data-name="Path 396" d="M310.871,390.74s8.949-5.327,10.015,1.4,2.48,18.289,2.48,18.289l2.474,14.685,3.208,29.428-.45,5.007s-9.512-3.184-11.761-2.083-4.054-12.347-4.054-12.347l-3.711-13.956-.592-29.594Z" transform="translate(-231.581 -275.726)" fill="#4c4c78"/>
          <path id="Path_397" data-name="Path 397" d="M310.871,390.74s8.949-5.327,10.015,1.4,2.48,18.289,2.48,18.289l2.474,14.685,3.208,29.428-.45,5.007s-9.512-3.184-11.761-2.083-4.054-12.347-4.054-12.347l-3.711-13.956-.592-29.594Z" transform="translate(-231.581 -275.726)" opacity="0.1"/>
          <path id="Path_398" data-name="Path 398" d="M320.65,333.56s9.287,10.464,23.379,12.577,31.482,2.782,31.482,2.782a15.261,15.261,0,0,1-1.941,16.206l-35.448-.781s-7.848-1.7-13.927,0Z" transform="translate(-236.547 -253.206)" fill="#4c4c78"/>
          <path id="Path_399" data-name="Path 399" d="M320.65,333.56s9.287,10.464,23.379,12.577,31.482,2.782,31.482,2.782a15.261,15.261,0,0,1-1.941,16.206l-35.448-.781s-7.848-1.7-13.927,0Z" transform="translate(-236.547 -253.206)" opacity="0.05"/>
          <path id="Path_400" data-name="Path 400" d="M450.84,406.14" transform="translate(-289.681 -282.827)" fill="none" stroke="blue" stroke-miterlimit="10" stroke-width="1"/>
          <path id="Path_401" data-name="Path 401" d="M266.2,259.65c3.462,7.4,9.47,12.867,18.206,12.867h1.136c4.066-3.161,7.215-5.191,7.215-5.191s-28.529-33.252-26.5-18.9C266.871,252.785,267.587,256.354,266.2,259.65Z" transform="translate(-214.303 -216.993)" opacity="0.1"/>
          <path id="Path_402" data-name="Path 402" d="M260.25,238.74a21.7,21.7,0,1,0,6.359-15.389A21.746,21.746,0,0,0,260.25,238.74Z" transform="translate(-211.897 -205.635)" fill="#ffb9b9"/>
          <path id="Path_403" data-name="Path 403" d="M237.8,401.627s48.5,4.279,50.31-1.912-4.948-22.953-4.948-22.953l2.166-23.409.083-.9s-6.061-25.32-5.86-27.321c.207-1.817-9.784-23.083-11.838-27.41l-.373-.781-.385.225-.166.1-2.367,1.385-9.393-2.214-11.3-5.919-1.071,64.751Z" transform="translate(-202.734 -235.64)" fill="#cbcdda"/>
          <path id="Path_404" data-name="Path 404" d="M278.957,302.583A3.865,3.865,0,0,1,283.574,305a34.13,34.13,0,0,0,1.776,4.143l1.3,7.694,2.367,12.151,1.74,53.861-.781,9.588-4.333-7.694-.787-50.31v-6.274a45.4,45.4,0,0,0-3.61-15.72l-.592-1.415-3.77-4.836Z" transform="translate(-218.684 -240.518)" opacity="0.1"/>
          <path id="Path_405" data-name="Path 405" d="M280.089,301.443a3.865,3.865,0,0,1,4.617,2.421,34.132,34.132,0,0,0,1.776,4.143l1.3,7.694,2.367,12.151,1.746,53.861-.793,9.565-4.333-7.694-.787-50.31V327a45.4,45.4,0,0,0-3.6-15.72l-.592-1.415L278,305.048Z" transform="translate(-219.141 -240.053)" fill="#4c4c78"/>
          <path id="Path_406" data-name="Path 406" d="M254.474,278S265.951,290.157,270,291.613c0,0-2.024,9.227-4.048,11.027,0,0-12.045-12.281-14.205-13.276l-1.776-4.374Z" transform="translate(-207.701 -230.53)" opacity="0.1"/>
          <path id="Path_407" data-name="Path 407" d="M254.474,276.9S265.951,289.057,270,290.513c0,0-2.024,9.227-4.048,11.027,0,0-12.045-12.281-14.205-13.276l-1.776-4.374Z" transform="translate(-207.701 -230.081)" fill="#cbcdda"/>
          <path id="Path_408" data-name="Path 408" d="M286.58,301.35l.118.314,3.681,9.861,6.57,18.62s.065.189.178.545c1.089,3.386,6.949,21.763,8.1,27.108l.083-.9s-6.055-25.344-5.854-27.345c.207-1.817-9.784-23.083-11.838-27.41-.326-.225-.592-.414-.758-.556Z" transform="translate(-222.643 -240.06)" opacity="0.1"/>
          <path id="Path_409" data-name="Path 409" d="M287.71,301.33l3.8,10.186,6.576,18.62s.065.189.178.545c1.154,3.61,7.73,24.208,8.286,27.978.592,4.143,8.878,26.5,8.878,26.5l4.735,38.738c4.22-3.291-1.776-34.921-1.776-34.921s-6.753-46.924-8.351-62.532-10.257-20.224-10.257-20.224A21.488,21.488,0,0,1,290,302.916,20.88,20.88,0,0,1,287.71,301.33Z" transform="translate(-223.104 -240.052)" fill="#4c4c78"/>
          <path id="Path_410" data-name="Path 410" d="M207.079,616.444c1.012,7.541,2.368,28.588,2.368,28.588,4.735,7.1,15.194,3.261,15.194,3.261s1.119-2.143,2.805-10.133,2.7-36.235,2.7-36.235l3.942-23.74c3.6-9.115,4.386-19.917,4.386-19.917,1.574-4.143,5.4-31.512,5.4-31.512s-1.58,24.533-.592,37.472-5.173,30.387-5.173,30.387-3.492,16.318-1.687,21.379-4.5,26-4.5,26c.562,6.079,18.455,3.6,18.455,3.6s8.44-22.616,9.9-36.235a179.851,179.851,0,0,1,4.338-24.362l1.456-18.9,2.592-11.139,3.1-14.738c3.486-10.808,4.557-28.866,4.557-28.866l2.7-17.721c1.776-8.766-.515-19.041-2.054-24.439-.663-2.326-1.184-3.753-1.184-3.753-1.551,1.1-10.429,2.368-15.022,3.439a26.136,26.136,0,0,1-7.694.592A170.95,170.95,0,0,1,218.8,463.2l-1.184-.355-.237,2.024-.556,4.83-.983,8.565s-3.042,45.687-1.243,51.878-1.237,26.984-1.237,26.984c1.687,4.936-3.6,25-3.6,25S206.067,608.909,207.079,616.444Z" transform="translate(-190.125 -305.968)" opacity="0.1"/>
          <path id="Path_411" data-name="Path 411" d="M207.079,615.3c1.012,7.541,2.368,28.588,2.368,28.588,4.735,7.1,15.194,3.261,15.194,3.261s1.119-2.143,2.805-10.133,2.7-36.235,2.7-36.235l3.942-23.74c3.6-9.115,4.386-19.917,4.386-19.917,1.574-4.143,5.4-31.512,5.4-31.512s-1.58,24.533-.592,37.472-5.173,30.387-5.173,30.387-3.492,16.318-1.687,21.379-4.5,26-4.5,26c.562,6.079,18.455,3.6,18.455,3.6s8.44-22.616,9.9-36.235a179.842,179.842,0,0,1,4.339-24.362l1.456-18.9,2.592-11.139,3.1-14.738c3.486-10.808,4.557-28.866,4.557-28.866l2.7-17.727c1.776-8.76-.515-19.035-2.054-24.433-.663-2.326-1.184-3.752-1.184-3.752-1.551,1.1-10.429,2.367-15.022,3.439a26.134,26.134,0,0,1-7.694.592,170.952,170.952,0,0,1-34.27-6.268l-1.184-.355-.237,2.024-.556,4.83-.983,8.564S212.8,522.805,214.6,529s-1.219,26.99-1.219,26.99c1.687,4.936-3.6,25-3.6,25S206.067,607.769,207.079,615.3Z" transform="translate(-190.125 -305.502)" fill="#474463"/>
          <path id="Path_412" data-name="Path 412" d="M260.25,238.719a21.7,21.7,0,0,0,2.882,10.814,11.466,11.466,0,0,0,9.553-2.3c1.734-1.527,2.853-3.616,4.344-5.386a31.65,31.65,0,0,1,3.107-3.066,9.622,9.622,0,0,1,2.45-1.776,3.326,3.326,0,0,1,2.959-.036c1.184.669,1.61,2.154,2.285,3.344a4.463,4.463,0,0,0,2.492,2.172,2.64,2.64,0,0,0,2.959-1.012c.734-1.267.2-3.243,1.432-4.013a7.456,7.456,0,0,1,1.006-.408c1.592-.722,1.776-2.859,1.906-4.6a2.878,2.878,0,0,1,.977-2.291,4.4,4.4,0,0,1,2.521-.207,3.552,3.552,0,0,0,.758-.065,21.746,21.746,0,0,0-41.627,8.813Z" transform="translate(-211.897 -205.615)" opacity="0.1"/>
          <path id="Path_413" data-name="Path 413" d="M301.178,203.762a7.221,7.221,0,0,1,2.93,5.256,2.764,2.764,0,0,1-.077,1.036,7.7,7.7,0,0,1-.527,1.03c-1.113,2.2.592,4.818.367,7.28a4.842,4.842,0,0,1-4.735,4.25c-.858,0-1.776-.255-2.521.207a2.806,2.806,0,0,0-.977,2.291c-.136,1.746-.314,3.883-1.906,4.6a8.352,8.352,0,0,0-1.006.414c-1.237.769-.693,2.752-1.432,4.007a2.634,2.634,0,0,1-2.959,1.018,4.486,4.486,0,0,1-2.492-2.172c-.681-1.184-1.089-2.675-2.285-3.344a3.344,3.344,0,0,0-2.959.03,9.648,9.648,0,0,0-2.45,1.776,32.334,32.334,0,0,0-3.107,3.066c-1.492,1.776-2.61,3.859-4.35,5.386-3.267,2.871-8.286,3.155-12.311,1.521a3.764,3.764,0,0,1-1.527-.977,3.823,3.823,0,0,1-.71-1.752,21.034,21.034,0,0,1-.349-6.061,30.589,30.589,0,0,0,.355-4.735c-.112-1.7-.722-3.35-.8-5.055-.148-3.013,1.349-5.877,3.2-8.286,1.1-1.421,2.338-2.74,3.291-4.262.829-1.32,1.432-2.782,2.326-4.06a14.219,14.219,0,0,1,9.186-5.38,32.147,32.147,0,0,1,10.873.355,89.458,89.458,0,0,0,9.47,1.468C296.425,202.833,298.663,201.9,301.178,203.762Z" transform="translate(-209.89 -198.907)" fill="#472727"/>
          <path id="Path_414" data-name="Path 414" d="M287.71,301.33l3.8,10.186,6.576,18.62s.065.189.178.545h0l-8.286-27.765A20.883,20.883,0,0,1,287.71,301.33Z" transform="translate(-223.104 -240.052)" opacity="0.1"/>
          <path id="Path_415" data-name="Path 415" d="M218.31,494.859s-.4,12.317,2.924,15.389l8.831-16.655L222.642,490Z" transform="translate(-194.774 -317.052)" fill="#ffb9b9"/>
          <path id="Path_416" data-name="Path 416" d="M183.48,414.978c4.054,4.735,21.686,5.57,21.686,5.57l17.478-27.51s4.143-2.871,11.891-15.785,7.511-22.87,7.1-30.3-5.327-28.783-5.327-28.783c-.752-4.806-11.636-34.921-11.636-34.921a15.429,15.429,0,0,1-5.759,5.759c-6.718,4.208-16.111,5.931-16.111,5.931-15.111,2.2-12.323,17.81-12.323,17.81s-.183,60.709.764,67.965S183.48,414.978,183.48,414.978Z" transform="translate(-180.565 -232.673)" opacity="0.1"/>
          <path id="Path_417" data-name="Path 417" d="M189.49,485.123l.5,4.5,6.138-2.249,4.5-6.807-3.374-2.646Z" transform="translate(-166.179 -304.954)" fill="#cbcdda"/>
          <path id="Path_418" data-name="Path 418" d="M218.3,468.473l3.208.326,30.943,3.09a50.126,50.126,0,0,0,14.868-.728l14.341-2.871c-.663-2.326-1.184-3.753-1.184-3.753-1.551,1.1-10.429,2.368-15.022,3.439a26.136,26.136,0,0,1-7.694.592,170.952,170.952,0,0,1-34.311-6.268l-1.4,1.669Z" transform="translate(-194.776 -305.747)" opacity="0.1"/>
          <g id="Group_45" data-name="Group 45" transform="translate(16.719 156.198)" opacity="0.1">
            <path id="Path_419" data-name="Path 419" d="M322.75,466.252a3.22,3.22,0,0,0,.3-.172l.03.083Z" transform="translate(-254.124 -463.488)"/>
            <path id="Path_420" data-name="Path 420" d="M209.708,580.981s5.291-20.065,3.6-25c0,0,3.042-20.793,1.237-26.984s1.243-51.878,1.243-51.878l1-8.564.592-4.83.237-2.024s.4.13,1.184.355l.716.213-.166.793-.562,4.83-1,8.564s-3.036,45.681-1.243,51.878-1.231,26.984-1.231,26.984c1.687,4.936-3.6,25-3.6,25s-3.717,26.788-2.7,34.329,2.368,28.582,2.368,28.582c3.451,5.185,9.967,4.534,13.223,3.806-.036.089-.059.136-.059.136s-10.464,3.824-15.193-3.261c0,0-1.349-21.047-2.368-28.588S209.708,580.981,209.708,580.981Z" transform="translate(-206.804 -461.7)"/>
            <path id="Path_421" data-name="Path 421" d="M253.652,658.462c-1.776-5.061,1.693-21.379,1.693-21.379s6.179-17.443,5.167-30.387c-.42-5.392-.391-12.79-.213-19.591,1.438-8.76,2.805-18.555,2.805-18.555s-1.58,24.527-.562,37.472-5.173,30.387-5.173,30.387-3.492,16.318-1.687,21.379-4.5,26-4.5,26c.45,4.871,12.015,4.25,16.573,3.806l-.172.468s-17.892,2.48-18.449-3.6C249.154,684.457,255.451,663.517,253.652,658.462Z" transform="translate(-224.078 -505.308)"/>
          </g>
          <path id="Path_422" data-name="Path 422" d="M182.34,414.978c4.054,4.735,21.686,5.57,21.686,5.57l17.472-27.51s4.143-2.871,11.9-15.785,7.511-22.87,7.1-30.3-5.327-28.783-5.327-28.783c-.752-4.806-11.636-34.921-11.636-34.921a15.429,15.429,0,0,1-5.759,5.759c-6.724,4.208-16.1,5.931-16.1,5.931-15.111,2.2-12.323,17.81-12.323,17.81s-.166,60.685.764,67.942S182.34,414.978,182.34,414.978Z" transform="translate(-180.1 -232.673)" fill="#4c4c78"/>
          <path id="Path_423" data-name="Path 423" d="M244.733,298.171l3.8,1.432L246,301.379l18.893,45.575c-.438-7.428-5.327-28.783-5.327-28.783-.752-4.806-11.636-34.921-11.636-34.921a15.429,15.429,0,0,1-5.759,5.759Z" transform="translate(-204.518 -232.673)" opacity="0.1"/>
          <path id="Path_424" data-name="Path 424" d="M195.284,430.088l-19.331-4.978-2.533,7.848,19.751,4.812Z" transform="translate(-159.621 -283.401)" opacity="0.1"/>
          <path id="Path_425" data-name="Path 425" d="M204.164,313.106s8.778,8.286,5.487,26.67-8.606,38.4-8.606,38.4l14.294,39.585s-9.961,10.382-14.856,11.642l-14.264-31.648s-6.665-10.973-4.895-28.185,8.186-45.071,8.186-45.071S189.48,307.536,204.164,313.106Z" transform="translate(-179.563 -244.4)" opacity="0.1"/>
          <path id="Path_426" data-name="Path 426" d="M203.016,313.106s8.778,8.286,5.487,26.67-8.606,38.4-8.606,38.4l14.246,39.585s-9.944,10.382-14.85,11.642l-14.264-31.648s-6.665-10.973-4.895-28.185,8.186-45.071,8.186-45.071S188.319,307.536,203.016,313.106Z" transform="translate(-179.078 -244.4)" fill="#4c4c78"/>
          <path id="Path_427" data-name="Path 427" d="M229.871,492.077s-11.139,15.389-10.293,19.532,4.108,1.912,4.108,1.912L228.1,507.5l3.942-11.246S231.647,491.414,229.871,492.077Z" transform="translate(-195.279 -317.874)" opacity="0.1"/>
          <path id="Path_428" data-name="Path 428" d="M232.2,492.077s-11.145,15.389-10.3,19.532,4.108,1.912,4.108,1.912l4.386-6.019,3.942-11.246S233.949,491.414,232.2,492.077Z" transform="translate(-196.226 -317.874)" opacity="0.1"/>
          <path id="Path_429" data-name="Path 429" d="M231.051,492.077s-11.139,15.389-10.293,19.532,4.108,1.912,4.108,1.912l4.386-6.019,3.942-11.246S232.809,491.414,231.051,492.077Z" transform="translate(-195.761 -317.874)" fill="#474463"/>
        </g>
      </g>
    </g>
  </g>
</svg>
