<svg xmlns="http://www.w3.org/2000/svg" xmlns:xlink="http://www.w3.org/1999/xlink" width="1021.22" height="606.586" viewBox="0 0 1021.22 606.586">
  <defs>
    <clipPath id="clip-path">
      <rect width="1021.22" height="606.586" fill="none"/>
    </clipPath>
    <linearGradient id="linear-gradient" x1="0.5" y1="1" x2="0.5" gradientUnits="objectBoundingBox">
      <stop offset="0" stop-color="gray" stop-opacity="0.251"/>
      <stop offset="0.54" stop-color="gray" stop-opacity="0.122"/>
      <stop offset="1" stop-color="gray" stop-opacity="0.102"/>
    </linearGradient>
    <linearGradient id="linear-gradient-2" x1="0" y1="0.5" x2="1" y2="0.5" xlink:href="#linear-gradient"/>
    <linearGradient id="linear-gradient-4" x1="0" y1="0.5" x2="1" y2="0.5" xlink:href="#linear-gradient"/>
    <linearGradient id="linear-gradient-6" x1="0" y1="0.5" x2="1" y2="0.5" xlink:href="#linear-gradient"/>
  </defs>
  <g id="Repeat_Grid_1" data-name="Repeat Grid 1" clip-path="url(#clip-path)">
    <g id="Group_51" data-name="Group 51" transform="translate(146.42 -2238)">
      <g id="Group_33" data-name="Group 33">
        <g id="Group_34" data-name="Group 34">
          <g id="Group_29" data-name="Group 29">
            <ellipse id="Ellipse_35" data-name="Ellipse 35" cx="303.293" cy="303.293" rx="303.293" ry="303.293" transform="translate(-66.586 2238)" fill="#2a80e9" opacity="0.07"/>
            <ellipse id="Ellipse_36" data-name="Ellipse 36" cx="127.585" cy="127.585" rx="127.585" ry="127.585" transform="translate(-146.42 2589.417)" fill="#2a80e9" opacity="0.07"/>
          </g>
          <ellipse id="Ellipse_46" data-name="Ellipse 46" cx="303.293" cy="303.293" rx="303.293" ry="303.293" transform="translate(-66.586 2238)" fill="#2a80e9" opacity="0.07"/>
        </g>
        <g id="undraw_experts3_3njd" transform="translate(148 2301)">
          <g id="Group_17" data-name="Group 17" transform="translate(433.662)" opacity="0.5">
            <rect id="Rectangle_83" data-name="Rectangle 83" width="293.138" height="287.247" fill="url(#linear-gradient)"/>
          </g>
          <rect id="Rectangle_84" data-name="Rectangle 84" width="290.196" height="282.827" transform="translate(435.133 2.21)" fill="#fff"/>
          <g id="Group_18" data-name="Group 18" transform="translate(464.596 25.694)" opacity="0.5">
            <rect id="Rectangle_85" data-name="Rectangle 85" width="231.27" height="179.539" fill="#2a80e9"/>
          </g>
          <g id="Group_19" data-name="Group 19" transform="translate(533.909 46.26)" opacity="0.5">
            <path id="Path_154" data-name="Path 154" d="M943.959,290.635a27.105,27.105,0,0,0-8.061-18.809c-4.541-4.46-10.647-9.579-17.264-12.676h-.04a29.222,29.222,0,0,0-8.894-2.687v-10.99a24.653,24.653,0,0,0,5.5-7.141h0v.88s10.54-10.647,10.3-23.142c.154-7.5-3.453-15.759-15.551-22.84-28.093-16.391-38.854,7.443-40.9,12.958a3.7,3.7,0,0,0-.3.84l-.081.255h0a2.942,2.942,0,0,0,0,.779h0v.081h0a3.259,3.259,0,0,0,0,.417c0,1.841,1.565,3.533,4.219,4.917a24.573,24.573,0,0,0,12.253,36.852v7.053l-.544-1.028s-3.755,2.25-8.6,5.7h0c-8.115,5.784-19.293,14.946-20.972,22.517-2.687,12.091,0,63.265,0,63.265l90.055,1.344Zm-27.79-53.3Zm-.9.987Zm.067-.074.034-.034Zm.134-.141Zm-46.687-29.557Zm.121.4v.04Zm.168.4v.054Zm.215.39.04.067Zm.262.383.054.074Zm.309.376.074.081Zm.356.369.087.087Zm3.05,2.015.094.047h0Zm-2.647-1.673.107.094Zm.443.356.128.094Zm.49.343.148.1Zm.531.336.175.1Zm.571.322.195.107Z" transform="translate(-853.832 -187.566)" fill="url(#linear-gradient-2)"/>
          </g>
          <rect id="Rectangle_86" data-name="Rectangle 86" width="23.908" height="35.065" transform="translate(565.607 104.504)" fill="#fda57d"/>
          <path id="Path_155" data-name="Path 155" d="M902.2,280.233c2.5.887,3.574,1.592,6.375,1.592a23.8,23.8,0,0,0,15.943-6.128l0-.246H902.2Z" transform="translate(-335.8 -170.153)" opacity="0.05"/>
          <circle id="Ellipse_24" data-name="Ellipse 24" cx="23.908" cy="23.908" r="23.908" transform="translate(549.666 63.064)" fill="#fda57d"/>
          <circle id="Ellipse_25" data-name="Ellipse 25" transform="translate(552.058 79.797)" fill="#ff0"/>
          <path id="Path_156" data-name="Path 156" d="M880.84,237.49" transform="translate(-328.789 -157.693)" fill="#ff0"/>
          <ellipse id="Ellipse_26" data-name="Ellipse 26" cx="21.368" cy="8.121" rx="21.368" ry="8.121" transform="translate(549.572 59.954)"/>
          <path id="Path_157" data-name="Path 157" d="M902.791,213.444l19.655,11.964v14.779s25.641-25.916-5.125-43.859S877.15,210,877.15,210,885.695,216.863,902.791,213.444Z" transform="translate(-327.578 -142.372)"/>
          <ellipse id="Ellipse_27" data-name="Ellipse 27" cx="2.391" cy="3.983" rx="2.391" ry="3.983" transform="translate(593.384 82.988)" fill="#fda57d"/>
          <g id="Group_20" data-name="Group 20" transform="translate(549.62 68.431)" opacity="0.05">
            <path id="Path_158" data-name="Path 158" d="M922.469,235.174l-13.086-7.96a50.187,50.187,0,0,1-10.815,1.122c-11.487,0-20.824-3.446-21.341-7.765v.074h0a3.172,3.172,0,0,0,0,.4c0,4.487,9.566,8.121,21.368,8.121a50.186,50.186,0,0,0,10.849-1.122l13.079,7.96Z" transform="translate(-877.22 -220.57)"/>
            <path id="Path_159" data-name="Path 159" d="M944.58,253.764v.853s10.244-10.358,10.009-22.517C954.347,243.882,944.58,253.764,944.58,253.764Z" transform="translate(-899.331 -224.355)"/>
          </g>
          <path id="Path_160" data-name="Path 160" d="M885.594,290.45s-26.158,15.692-28.771,27.461,0,61.559,0,61.559l87.623,1.31L943.33,323.8a26.38,26.38,0,0,0-7.859-18.305c-6.543-6.429-16.438-14.281-26.339-15.047l-11.769,22.235Z" transform="translate(-320.524 -175.077)" fill="#4d8af0"/>
          <path id="Path_161" data-name="Path 161" d="M880.623,330.1s-6.839,35.892-.853,47.023" transform="translate(-327.632 -188.092)" opacity="0.05"/>
          <path id="Path_162" data-name="Path 162" d="M956,330.1s6.838,35.892.853,47.023" transform="translate(-353.46 -188.092)" opacity="0.05"/>
          <path id="Path_163" data-name="Path 163" d="M841.02,171.779l24.835-.349L849.571,212.8Z" transform="translate(-276.065 -56.272)" fill="#fff"/>
          <path id="Path_164" data-name="Path 164" d="M841.02,168.14V170.7h24.788l.047-2.559Z" transform="translate(-276.065 -55.192)" fill="#fff"/>
          <rect id="Rectangle_87" data-name="Rectangle 87" width="3.419" height="3.419" transform="translate(575.213 112.948)"/>
          <path id="Path_165" data-name="Path 165" d="M838.516,171.95l-5.125,5.132,11.111,18.93Z" transform="translate(-273.56 -56.443)" fill="#4d8af0"/>
          <path id="Path_166" data-name="Path 166" d="M872.465,174.5l4.279,4.272L863.92,195.862Z" transform="translate(-283.582 -57.28)" fill="#4d8af0"/>
          <path id="Path_167" data-name="Path 167" d="M838.516,171.95l-5.125,5.132,11.111,18.93Z" transform="translate(-273.56 -56.443)" fill="#fff" opacity="0.1"/>
          <path id="Path_168" data-name="Path 168" d="M872.465,174.5l4.279,4.272L863.92,195.862Z" transform="translate(-283.582 -57.28)" fill="#fff" opacity="0.1"/>
          <path id="Path_169" data-name="Path 169" d="M852.15,170.68l-13.67,57.636,8.545,12.817,11.111-12.817Z" transform="translate(-275.231 -56.026)"/>
          <rect id="Rectangle_88" data-name="Rectangle 88" width="204.212" height="9.405" transform="translate(480.94 230.451)" fill="#e0e0e0"/>
          <rect id="Rectangle_89" data-name="Rectangle 89" width="139.052" height="9.405" transform="translate(513.519 249.26)" fill="#e0e0e0"/>
          <g id="Group_21" data-name="Group 21" transform="translate(0 76.929)" opacity="0.5">
            <rect id="Rectangle_90" data-name="Rectangle 90" width="293.138" height="287.247" fill="url(#linear-gradient)"/>
          </g>
          <rect id="Rectangle_91" data-name="Rectangle 91" width="290.196" height="282.827" transform="translate(1.471 79.139)" fill="#fff"/>
          <g id="Group_22" data-name="Group 22" transform="translate(30.934 102.623)" opacity="0.5">
            <rect id="Rectangle_92" data-name="Rectangle 92" width="231.27" height="179.539" fill="#2a80e9"/>
          </g>
          <g id="Group_23" data-name="Group 23" transform="translate(102.368 114.565)" opacity="0.5">
            <path id="Path_170" data-name="Path 170" d="M309.334,423.33h3.735L311.9,411.373h-.128c.712-7.309,1.78-39.694-33.037-52.6l-3.11-2.049-.235.208v-8.739A25.029,25.029,0,0,0,281,340.967h0v.893a43.986,43.986,0,0,0,7.524-11.131,43.934,43.934,0,0,1-6.664,9.337v-.081c4.373-4.991,22.255-28.16-6.241-44.786-32.1-18.722-38.155,12.689-38.155,12.689l2.559,3.426s-6.214,12.441-6.214,18.312a24.949,24.949,0,0,0,16.626,23.511V360.6c-2.318.846-34.528,13.307-34.528,50.771l-4.487,11.957,1.5.672h0v33.326h73.221s4.487-35.5,2.989-47.459l4.487,2.989v10.466h.994v.262h-.289l.289.967v32.029h14.7V424.559l.168-.967h-.168Zm-83.069,2.741h0l.107-2.741Z" transform="translate(-211.42 -289.246)" fill="url(#linear-gradient-4)"/>
          </g>
          <rect id="Rectangle_93" data-name="Rectangle 93" width="23.908" height="35.065" transform="translate(141.88 174.339)" fill="#fda57d"/>
          <path id="Path_171" data-name="Path 171" d="M271.43,384.193c2.5.887,3.574,1.592,6.375,1.592a23.79,23.79,0,0,0,15.945-6.13l0-.245H271.43Z" transform="translate(-128.75 -204.278)" opacity="0.05"/>
          <circle id="Ellipse_28" data-name="Ellipse 28" cx="23.908" cy="23.908" r="23.908" transform="translate(125.946 132.899)" fill="#fda57d"/>
          <circle id="Ellipse_29" data-name="Ellipse 29" transform="translate(128.338 149.632)" fill="#ff0"/>
          <path id="Path_172" data-name="Path 172" d="M250.07,341.45" transform="translate(-121.739 -191.818)" fill="#ff0"/>
          <path id="Path_173" data-name="Path 173" d="M273.855,321.292l19.655,7.692v14.779s25.661-25.883-5.125-43.845c-27.663-16.122-32.674,3.3-36.154,7.033a.9.9,0,0,0,.047,1.276C255.7,311.444,258.62,324.342,273.855,321.292Z" transform="translate(-122.369 -176.113)" fill="#4d4545"/>
          <rect id="Rectangle_94" data-name="Rectangle 94" width="14.087" height="35.099" transform="translate(184.241 246.62)" fill="#fda57d"/>
          <path id="Path_174" data-name="Path 174" d="M272.85,351.5V361.53h18.621l-1.135-11.46Z" transform="translate(-89.563 -114.91)" fill="#fff"/>
          <path id="Path_175" data-name="Path 175" d="M157.68,367.13v35.818h11.46l1.33-33.191Z" transform="translate(-51.758 -120.51)" fill="#fda57d"/>
          <path id="Path_176" data-name="Path 176" d="M262.528,404.891l-8.316-10.029S221,406.322,221,443.57l10.029,11.46L229.6,490.848h58.738s4.3-37.249,2.868-48.709l4.3,2.868h17.19S319.3,404.891,277.763,392Z" transform="translate(-112.197 -208.411)" fill="#235067"/>
          <path id="Path_177" data-name="Path 177" d="M159.842,350.07l-4.292,11.46,14.066,6.449.255-6.449Z" transform="translate(-51.059 -114.91)" fill="#fff"/>
          <path id="Path_178" data-name="Path 178" d="M202.62,281.994l5.629,12.6,8.041-6.61-7.765-9.149Z" transform="translate(-66.51 -91.526)" opacity="0.05"/>
          <path id="Path_179" data-name="Path 179" d="M202.62,280.724l5.629,12.589,8.041-6.6-7.765-9.149Z" transform="translate(-66.51 -91.109)" fill="#fff"/>
          <path id="Path_180" data-name="Path 180" d="M240.063,273.37l5.125,3.419-14.523,13.67-5.085-4.413Z" transform="translate(-74.047 -89.734)" opacity="0.05"/>
          <path id="Path_181" data-name="Path 181" d="M240.063,272.1l5.125,3.412-14.523,13.677-5.085-4.413Z" transform="translate(-74.047 -89.317)" fill="#fff"/>
          <path id="Path_182" data-name="Path 182" d="M237.47,466.086a51.053,51.053,0,0,1,10.258-30.766" transform="translate(-117.603 -222.63)" opacity="0.05"/>
          <path id="Path_183" data-name="Path 183" d="M263.68,347.192V342.06l5.125,3.419-3.419-.853Z" transform="translate(-86.553 -112.281)" opacity="0.05"/>
          <path id="Path_184" data-name="Path 184" d="M273.86,367.51l.275.92h14.087l.161-.92Z" transform="translate(-89.895 -120.635)" opacity="0.05"/>
          <path id="Path_185" data-name="Path 185" d="M157.68,368.11v.981l12.562,5.394-.322-.8Z" transform="translate(-51.758 -120.832)" opacity="0.05"/>
          <path id="Path_186" data-name="Path 186" d="M300.762,340.773a42.113,42.113,0,0,1-6.382,8.948v-14.8l-19.655-7.692c-14.732,2.949-17.056-8.9-21.187-12.7a.907.907,0,0,0-1.276.054h0a.9.9,0,0,0,.047,1.276c3.426,3.211,6.341,16.122,21.583,13.059l19.655,7.692v14.779a42.16,42.16,0,0,0,7.215-10.62Z" transform="translate(-122.379 -182.905)" opacity="0.05"/>
          <ellipse id="Ellipse_30" data-name="Ellipse 30" cx="2.391" cy="3.983" rx="2.391" ry="3.983" transform="translate(169.657 152.823)" fill="#fda57d"/>
          <rect id="Rectangle_95" data-name="Rectangle 95" width="204.212" height="9.405" transform="translate(39.6 303.671)" fill="#e0e0e0"/>
          <rect id="Rectangle_96" data-name="Rectangle 96" width="139.052" height="9.405" transform="translate(72.18 322.48)" fill="#e0e0e0"/>
          <g id="Group_24" data-name="Group 24" transform="translate(218.285 157.848)" opacity="0.5">
            <rect id="Rectangle_97" data-name="Rectangle 97" width="293.138" height="287.247" fill="url(#linear-gradient)"/>
          </g>
          <rect id="Rectangle_98" data-name="Rectangle 98" width="290.196" height="282.827" transform="translate(219.756 160.058)" fill="#fff"/>
          <g id="Group_25" data-name="Group 25" transform="translate(249.219 183.549)" opacity="0.5">
            <rect id="Rectangle_99" data-name="Rectangle 99" width="231.27" height="179.539" fill="#2a80e9"/>
          </g>
          <g id="Group_26" data-name="Group 26" transform="translate(314.016 185.107)" opacity="0.5">
            <path id="Path_187" data-name="Path 187" d="M597.709,504.776l.672-.5.961-.712h0l44.846-33.312-15.417-61.66v-.2c.128-1.881.846-16.438-7.02-13.811-7.685,2.559-4.837,13.314-4.286,15.141l.087.269,9.807,51.852-31.169,18.178-4.326-.484a38.9,38.9,0,0,0,7.463-23.3c0-19.346-13.173-35.032-29.429-35.032s-29.429,15.685-29.429,35.032c0,14.49,7.389,26.93,17.929,32.244l-11.158,5.582v.06c-3.2-.672-15.329-.47-10.412,44.053a46.968,46.968,0,0,1-7.262,30.766l-3.077,4.279,76.815.47h.235S592.664,556.252,597.709,504.776Z" transform="translate(-526.49 -394.26)" fill="url(#linear-gradient-6)"/>
          </g>
          <path id="Path_188" data-name="Path 188" d="M549.211,543.2s-15.853-6.845-11.232,40.2a55.533,55.533,0,0,1-8.645,35.717l-.974,1.5H543.1l11.1-11.756Z" transform="translate(-213.088 -257.928)" fill="#3ad29f"/>
          <path id="Path_189" data-name="Path 189" d="M660.46,418.125v-.195l-11.084,1.3.081.269,9.613,50.825L626.1,489.559l1.344,24.727,48.077-35.717Z" transform="translate(-245.171 -216.922)" fill="#3ad29f"/>
          <ellipse id="Ellipse_31" data-name="Ellipse 31" cx="28.845" cy="34.34" rx="28.845" ry="34.34" transform="translate(328.755 213.563)" fill="#ff0"/>
          <rect id="Rectangle_100" data-name="Rectangle 100" width="20.603" height="30.222" transform="translate(351.419 259.578)" fill="#fda57d"/>
          <path id="Path_190" data-name="Path 190" d="M577.652,535.621l-5.495-8.242-16.485,8.242v13.637a28.017,28.017,0,0,0-1.108,22.692c-1.344,17.855-4.984,41.259-4.984,41.259l61.069.45s-10.99-17.62-5.495-69.815l-1.344-21.98-12.36-1.344Z" transform="translate(-220.053 -250.597)" fill="#3ad29f"/>
          <path id="Path_191" data-name="Path 191" d="M571.19,403.81l1.377,1.37,1.37,21.664-1.6,1.189Z" transform="translate(-187.493 -132.551)" opacity="0.05"/>
          <path id="Path_192" data-name="Path 192" d="M583.19,510.251c2.15.759,3.083,1.344,5.495,1.344a20.5,20.5,0,0,0,13.74-5.282l0-.213H583.19Z" transform="translate(-231.085 -245.864)" opacity="0.05"/>
          <circle id="Ellipse_32" data-name="Ellipse 32" cx="20.603" cy="20.603" r="20.603" transform="translate(337.682 223.867)" fill="#fda57d"/>
          <ellipse id="Ellipse_33" data-name="Ellipse 33" cx="2.062" cy="3.433" rx="2.062" ry="3.433" transform="translate(376.832 241.037)" fill="#fda57d"/>
          <circle id="Ellipse_34" data-name="Ellipse 34" transform="translate(339.744 238.29)" fill="#ff0"/>
          <path id="Path_193" data-name="Path 193" d="M564.78,473.43" transform="translate(-225.042 -235.14)" fill="#ff0"/>
          <path id="Path_194" data-name="Path 194" d="M506.344,354.33v.967h35.368v.967H505.86Z" transform="translate(-166.048 -116.309)" opacity="0.05"/>
          <rect id="Rectangle_101" data-name="Rectangle 101" width="35.717" height="17.855" transform="translate(339.744 221.805)" fill="#ff0"/>
          <path id="Path_195" data-name="Path 195" d="M664.482,397.619c-7.53,2.512-4.743,13.052-4.205,14.846l11.084-1.3C671.509,409.314,672.214,395.046,664.482,397.619Z" transform="translate(-256.078 -210.153)" fill="#fda57d"/>
          <g id="Group_27" data-name="Group 27" transform="translate(329.272 269.882)" opacity="0.05">
            <path id="Path_196" data-name="Path 196" d="M550.671,616.56s3.614-23.4,4.984-41.259c-4.843-12.092,1.135-22.692,1.135-22.692V538.972l15.376-7.692-.369-.551-16.478,8.242v13.637a28.148,28.148,0,0,0-1.135,22.692c-1.344,17.855-4.984,41.259-4.984,41.259l61.069.45h0Z" transform="translate(-549.2 -523.831)"/>
            <path id="Path_197" data-name="Path 197" d="M533.885,416.868l13.6-14.96-1.337-.148L533.26,415.934Z" transform="translate(-504.314 -401.76)"/>
          </g>
          <path id="Path_198" data-name="Path 198" d="M516.46,412.312l10.553,24.3,19.346-33.191-5.347-.685-13.26,13.254-5.891-6.623Z" transform="translate(-169.528 -132.199)" opacity="0.05"/>
          <path id="Path_199" data-name="Path 199" d="M516.46,411.212l10.553,24.311,19.346-33.191-5.347-.692-13.26,13.26-5.891-6.63Z" transform="translate(-169.528 -131.838)" fill="#fff"/>
          <rect id="Rectangle_102" data-name="Rectangle 102" width="204.212" height="9.405" transform="translate(263.292 382.266)" fill="#e0e0e0"/>
          <rect id="Rectangle_103" data-name="Rectangle 103" width="139.052" height="9.405" transform="translate(295.872 401.075)" fill="#e0e0e0"/>
        </g>
      </g>
    </g>
  </g>
</svg>
