<svg xmlns="http://www.w3.org/2000/svg" width="23.983" height="13.344" viewBox="0 0 23.983 13.344">
  <path id="Shape" d="M11.734,13.289h1.434a1.226,1.226,0,0,0,.654-.279,1,1,0,0,0,.2-.614s-.028-1.876.865-2.152,2.01,1.813,3.208,2.615a2.314,2.314,0,0,0,1.594.474l3.2-.044s1.675-.1.881-1.385a10.5,10.5,0,0,0-2.381-2.687c-2.008-1.818-1.739-1.524.68-4.669C23.541,2.632,24.13,1.463,23.946.962,23.77.485,22.687.611,22.687.611L19.081.633a.837.837,0,0,0-.466.08.99.99,0,0,0-.318.378,20.134,20.134,0,0,1-1.332,2.742c-1.606,2.66-2.248,2.8-2.51,2.635C13.844,6.083,14,4.921,14,4.1c0-2.577.4-3.652-.78-3.93A6.306,6.306,0,0,0,11.533,0,7.958,7.958,0,0,0,8.541.3c-.41.2-.727.633-.534.658a1.635,1.635,0,0,1,1.064.522,3.322,3.322,0,0,1,.357,1.592s.212,3.034-.5,3.411c-.486.258-1.153-.269-2.584-2.682A22.185,22.185,0,0,1,5.06,1.2a1.046,1.046,0,0,0-.3-.392A1.518,1.518,0,0,0,4.208.59L.782.611S.267.625.078.844c-.168.194-.013.6-.013.6s2.683,6.122,5.72,9.207a8.342,8.342,0,0,0,5.948,2.643Z" transform="translate(0 0)" fill="#fff"/>
</svg>
